{
  "data": [
    {
      "id": 11,
      "credit_note_no": "CN-2025-011",
      "amount": 1200.00,
      "currency": "KES",
      "description": "deviceq.co.ke cancellation - pro-rata Refund",
      "date": "2025-08-11"
    },
    {
      "id": 12,
      "credit_note_no": "CN-2025-012",
      "amount": 3000.00,
      "currency": "KES",
      "description": "pafe.co.ke overpayment refund",
      "date": "2025-08-12"
    },
    {
      "id": 13,
      "credit_note_no": "CN-2025-013",
      "amount": 4500.00,
      "currency": "KES",
      "description": "deviceq.co.ke cancellation - pro-rata Refund",
      "date": "2025-08-13"
    },
    {
      "id": 14,
      "credit_note_no": "CN-2025-014",
      "amount": 2200.00,
      "currency": "KES",
      "description": "Hosting downgrade refund",
      "date": "2025-08-14"
    },
    {
      "id": 15,
      "credit_note_no": "CN-2025-015",
      "amount": 3500.00,
      "currency": "KES",
      "description": "deviceq.co.ke cancellation - pro-rata Refund",
      "date": "2025-08-15"
    },
    {
      "id": 16,
      "credit_note_no": "CN-2025-016",
      "amount": 1800.00,
      "currency": "KES",
      "description": "SSL certificate refund",
      "date": "2025-08-16"
    },
    {
      "id": 17,
      "credit_note_no": "CN-2025-017",
      "amount": 6000.00,
      "currency": "KES",
      "description": "Overpayment adjustment",
      "date": "2025-08-17"
    },
    {
      "id": 18,
      "credit_note_no": "CN-2025-018",
      "amount": 2500.00,
      "currency": "KES",
      "description": "Email hosting cancellation - pro-rata Refund",
      "date": "2025-08-18"
    },
    {
      "id": 19,
      "credit_note_no": "CN-2025-019",
      "amount": 4000.00,
      "currency": "KES",
      "description": "deviceq.co.ke cancellation - pro-rata Refund",
      "date": "2025-08-19"
    },
    {
      "id": 20,
      "credit_note_no": "CN-2025-020",
      "amount": 1500.00,
      "currency": "KES",
      "description": "pafe.co.ke downgrade refund",
      "date": "2025-08-20"
    }
  ],
  "meta": {
      "total": 25,
      "per_page": 10,
      "current_page": 2,
      "last_page": 3,
      "from": 11,
      "to": 20
  },
  "links": {
    "first": "https://api.example.com/v1/credit-notes?page=1",
    "last": "https://api.example.com/v1/credit-notes?page=3",
    "prev": "https://api.example.com/v1/credit-notes?page=1",
    "next": "https://api.example.com/v1/credit-notes?page=3"
  }
}

