{
  "data": [
    {
      "id": "txn_2025_006",
      "wallet_id": "wallet_001",
      "type": "debit",
      "amount": 1800.00,
      "currency": "KES",
      "description": "Invoice INV-2025-004 payment",
      "reference": "INV-2025-004",
      "invoice_id": "inv_2025_004",
      "status": "completed",
      "balance_before": 8300.00,
      "balance_after": 6500.00,
      "channel": "wallet-auto-debit",
      "created_at": "2025-08-07T11:00:00Z",
      "completed_at": "2025-08-07T11:00:10Z"
    },
    {
      "id": "txn_2025_007",
      "wallet_id": "wallet_001",
      "type": "debit",
      "amount": 2200.00,
      "currency": "KES",
      "description": "Invoice INV-2025-005 payment",
      "reference": "INV-2025-005",
      "invoice_id": "inv_2025_005",
      "status": "completed",
      "balance_before": 6500.00,
      "balance_after": 4300.00,
      "channel": "wallet-auto-debit",
      "created_at": "2025-08-09T13:20:00Z",
      "completed_at": "2025-08-09T13:20:10Z"
    },
    {
      "id": "txn_2025_008",
      "wallet_id": "wallet_001",
      "type": "credit",
      "amount": 7000.00,
      "currency": "KES",
      "description": "Top-up via Mpesa",
      "reference": "MPESA-XYZ789",
      "invoice_id": null,
      "status": "completed",
      "balance_before": 4300.00,
      "balance_after": 11300.00,
      "channel": "mpesa",
      "created_at": "2025-08-10T15:00:00Z",
      "completed_at": "2025-08-10T15:00:07Z"
    },
    {
      "id": "txn_2025_009",
      "wallet_id": "wallet_001",
      "type": "debit",
      "amount": 3000.00,
      "currency": "KES",
      "description": "Invoice INV-2025-006 payment",
      "reference": "INV-2025-006",
      "invoice_id": "inv_2025_006",
      "status": "completed",
      "balance_before": 11300.00,
      "balance_after": 8300.00,
      "channel": "wallet-auto-debit",
      "created_at": "2025-08-12T10:10:00Z",
      "completed_at": "2025-08-12T10:10:05Z"
    },
    {
      "id": "txn_2025_010",
      "wallet_id": "wallet_001",
      "type": "debit",
      "amount": 1500.00,
      "currency": "KES",
      "description": "Invoice INV-2025-007 payment",
      "reference": "INV-2025-007",
      "invoice_id": "inv_2025_007",
      "status": "completed",
      "balance_before": 8300.00,
      "balance_after": 6800.00,
      "channel": "wallet-auto-debit",
      "created_at": "2025-08-14T09:25:00Z",
      "completed_at": "2025-08-14T09:25:10Z"
    }
  ],
  "meta": {
    "current_page": 2,
    "from": 6,
    "to": 10,
    "per_page": 5,
    "total": 15,
    "last_page": 3
  },
  "links": {
    "first": "https://github.com/JacksonMusee/sample-data/blob/main/h_panel/wallet_transactions/page1.json",
    "last": "https://github.com/JacksonMusee/sample-data/blob/main/h_panel/wallet_transactions/page3.json",
    "previous": "https://github.com/JacksonMusee/sample-data/blob/main/h_panel/wallet_transactions/page1.json",
    "next": "https://github.com/JacksonMusee/sample-data/blob/main/h_panel/wallet_transactions/page3.json"
  }
}
