{
  "data": [
    {
      "id": "txn_2025_011",
      "wallet_id": "wallet_001",
      "type": "debit",
      "amount": 2500.00,
      "currency": "KES",
      "description": "Invoice INV-2025-008 payment",
      "reference": "INV-2025-008",
      "invoice_id": "inv_2025_008",
      "status": "completed",
      "balance_before": 6800.00,
      "balance_after": 4300.00,
      "channel": "wallet-auto-debit",
      "created_at": "2025-08-15T08:00:00Z",
      "completed_at": "2025-08-15T08:00:08Z"
    },
    {
      "id": "txn_2025_012",
      "wallet_id": "wallet_001",
      "type": "credit",
      "amount": 5000.00,
      "currency": "KES",
      "description": "Top-up via bank transfer",
      "reference": "BANK-TRF-2025-002",
      "invoice_id": null,
      "status": "completed",
      "balance_before": 4300.00,
      "balance_after": 9300.00,
      "channel": "bank-transfer",
      "created_at": "2025-08-16T12:10:00Z",
      "completed_at": "2025-08-16T12:10:06Z"
    },
    {
      "id": "txn_2025_013",
      "wallet_id": "wallet_001",
      "type": "debit",
      "amount": 4000.00,
      "currency": "KES",
      "description": "Invoice INV-2025-009 payment",
      "reference": "INV-2025-009",
      "invoice_id": "inv_2025_009",
      "status": "completed",
      "balance_before": 9300.00,
      "balance_after": 5300.00,
      "channel": "wallet-auto-debit",
      "created_at": "2025-08-17T14:00:00Z",
      "completed_at": "2025-08-17T14:00:09Z"
    },
    {
      "id": "txn_2025_014",
      "wallet_id": "wallet_001",
      "type": "debit",
      "amount": 1200.00,
      "currency": "KES",
      "description": "Invoice INV-2025-010 payment",
      "reference": "INV-2025-010",
      "invoice_id": "inv_2025_010",
      "status": "completed",
      "balance_before": 5300.00,
      "balance_after": 4100.00,
      "channel": "wallet-auto-debit",
      "created_at": "2025-08-18T09:45:00Z",
      "completed_at": "2025-08-18T09:45:04Z"
    },
    {
      "id": "txn_2025_015",
      "wallet_id": "wallet_001",
      "type": "debit",
      "amount": 4100.00,
      "currency": "KES",
      "description": "Invoice INV-2025-011 payment",
      "reference": "INV-2025-011",
      "invoice_id": "inv_2025_011",
      "status": "completed",
      "balance_before": 4100.00,
      "balance_after": 0.00,
      "channel": "wallet-auto-debit",
      "created_at": "2025-08-19T10:00:00Z",
      "completed_at": "2025-08-19T10:00:07Z"
    }
  ],
  "meta": {
    "current_page": 3,
    "from": 11,
    "to": 15,
    "per_page": 5,
    "total": 15,
    "last_page": 3
  },
  "links": {
    "first": "https://github.com/JacksonMusee/sample-data/blob/main/h_panel/wallet_transactions/page1.json",
    "last": "https://github.com/JacksonMusee/sample-data/blob/main/h_panel/wallet_transactions/page3.json",
    "prev": "https://github.com/JacksonMusee/sample-data/blob/main/h_panel/wallet_transactions/page2.json",
    "next": null
  }
}
